
 Cache[0].v = 1,  Cache[0].tag = 8
 Cache[1].v = 0,  Cache[1].tag = 0
 Cache[2].v = 0,  Cache[2].tag = 0
 Cache[3].v = 0,  Cache[3].tag = 0
 Cache[4].v = 0,  Cache[4].tag = 0
 Cache[5].v = 0,  Cache[5].tag = 0
 Cache[6].v = 0,  Cache[6].tag = 0
 Cache[7].v = 0,  Cache[7].tag = 0
 Cache[8].v = 0,  Cache[8].tag = 0
 Cache[9].v = 0,  Cache[9].tag = 0
 Cache[10].v = 0,  Cache[10].tag = 0
 Cache[11].v = 0,  Cache[11].tag = 0
 Cache[12].v = 0,  Cache[12].tag = 0
 Cache[13].v = 0,  Cache[13].tag = 0
 Cache[14].v = 0,  Cache[14].tag = 0
 Cache[15].v = 0,  Cache[15].tag = 0